[gd_scene load_steps=5 format=2]

[ext_resource path="res://plugins/minigames/knock_off/player_knock_off.gd" type="Script" id=1]
[ext_resource path="res://plugins/minigames/knock_off/player_ball_material/player_knock_off_ball_material.tres" type="Material" id=2]


[sub_resource type="SphereMesh" id=1]

custom_aabb = AABB( 0, 0, 0, 0, 0, 0 )
radius = 0.5
height = 1.0
radial_segments = 64
rings = 32
is_hemisphere = false

[sub_resource type="SphereShape" id=2]

radius = 0.5

[node name="Player" type="RigidBody" index="0" groups=[
"players",
]]

input_ray_pickable = true
input_capture_on_drag = false
collision_layer = 1
collision_mask = 1
mode = 0
mass = 1.0
friction = 0.9
bounce = 0.0
gravity_scale = 1.0
custom_integrator = false
continuous_cd = false
contacts_reported = 0
contact_monitor = false
sleeping = false
can_sleep = false
axis_lock_linear_x = false
axis_lock_linear_y = false
axis_lock_linear_z = false
axis_lock_angular_x = false
axis_lock_angular_y = false
axis_lock_angular_z = false
linear_velocity = Vector3( 0, 0, 0 )
linear_damp = -1.0
angular_velocity = Vector3( 0, 0, 0 )
angular_damp = -1.0
script = ExtResource( 1 )

[node name="Ball" type="MeshInstance" parent="." index="0"]

layers = 1
material_override = null
cast_shadow = 1
extra_cull_margin = 0.0
use_in_baked_light = false
lod_min_distance = 0.0
lod_min_hysteresis = 0.0
lod_max_distance = 0.0
lod_max_hysteresis = 0.0
mesh = SubResource( 1 )
skeleton = NodePath("..")
material/0 = ExtResource( 2 )
_sections_unfolded = [ "material" ]

[node name="Model" type="Spatial" parent="." index="1"]

_sections_unfolded = [ "Transform" ]

[node name="Sphere" type="CollisionShape" parent="." index="2"]

shape = SubResource( 2 )
disabled = false


