{
    "name" : "Kernel compiling",
    "scene_path" : "res://plugins/minigames/kernel_compiling/minigame.tscn",
    "type" : ["FFA", "2v2", "Duel"],
    "image_path" : "res://plugins/minigames/kernel_compiling/screenshot.png",
    
    "description" : {
	"en" : "The players generate energy to compile the linux kernel. The key to press is shown on a screen.\nThe fastest player wins!"
    },
    
    "used_controls" : {
    }
}
